%YAML 1.1
%TAG !u! tag:unity3d.com,2011:
--- !u!114 &11400000
MonoBehaviour:
  m_ObjectHideFlags: 0
  m_CorrespondingSourceObject: {fileID: 0}
  m_PrefabInternal: {fileID: 0}
  m_GameObject: {fileID: 0}
  m_Enabled: 1
  m_EditorHideFlags: 0
  m_Script: {fileID: 11500000, guid: 08f3274396a01954ca47d4d77858532e, type: 3}
  m_Name: Wave 5
  m_EditorClassIdentifier: 
  enemyPrefab:
  - {fileID: 1571026109718966, guid: 768b34968f80f1348a0b7103e5e77642, type: 2}
  - {fileID: 1571026109718966, guid: 9574acce6debcb74b96baec2131c99f7, type: 2}
  - {fileID: 1571026109718966, guid: 09b6f7b48331dca4eb6d82a954528381, type: 2}
  - {fileID: 1571026109718966, guid: bb8122be4936dcf42908a01648951bb6, type: 2}
  - {fileID: 1571026109718966, guid: 59f71608806f5d24c931ef829b634a68, type: 2}
  - {fileID: 1571026109718966, guid: 8147b0cdc358f4a43ba27d1684857d6f, type: 2}
  randomSpawn: 1
  pathPrefab: {fileID: 1580499091064504, guid: cab8940ce132ec442b87f86a1a6c3082, type: 2}
  timeBetweenSpawns: 2
  spawnRandomFactor: 0.5
  numberOfEnemies: 500
  moveSpeed: 5
  speedRandomFactor: 3
  destroyAtEndOfPath: 1
  maxTimeSpawning: 15
