%YAML 1.1
%TAG !u! tag:unity3d.com,2011:
--- !u!114 &11400000
MonoBehaviour:
  m_ObjectHideFlags: 0
  m_CorrespondingSourceObject: {fileID: 0}
  m_PrefabInternal: {fileID: 0}
  m_GameObject: {fileID: 0}
  m_Enabled: 1
  m_EditorHideFlags: 0
  m_Script: {fileID: 11500000, guid: 08f3274396a01954ca47d4d77858532e, type: 3}
  m_Name: Wave 3
  m_EditorClassIdentifier: 
  enemyPrefab:
  - {fileID: 1571026109718966, guid: 74feb737d8a31984dbcac944d2b30582, type: 2}
  randomSpawn: 0
  pathPrefab: {fileID: 1380666107277148, guid: cee57d9fdcc48304692d718bcd642c75, type: 2}
  timeBetweenSpawns: 1
  spawnRandomFactor: 0
  numberOfEnemies: 4
  moveSpeed: 1.5
  speedRandomFactor: 0
  destroyAtEndOfPath: 0
  maxTimeSpawning: 0
