%YAML 1.1
%TAG !u! tag:unity3d.com,2011:
--- !u!114 &11400000
MonoBehaviour:
  m_ObjectHideFlags: 0
  m_CorrespondingSourceObject: {fileID: 0}
  m_PrefabInternal: {fileID: 0}
  m_GameObject: {fileID: 0}
  m_Enabled: 1
  m_EditorHideFlags: 0
  m_Script: {fileID: 11500000, guid: 08f3274396a01954ca47d4d77858532e, type: 3}
  m_Name: Wave 2
  m_EditorClassIdentifier: 
  enemyPrefab:
  - {fileID: 1960793848167712, guid: ec415b323696e2c459a4b25d4c4baddc, type: 2}
  - {fileID: 1960793848167712, guid: ec415b323696e2c459a4b25d4c4baddc, type: 2}
  - {fileID: 1960793848167712, guid: ec415b323696e2c459a4b25d4c4baddc, type: 2}
  - {fileID: 1960793848167712, guid: ec415b323696e2c459a4b25d4c4baddc, type: 2}
  - {fileID: 1571026109718966, guid: 8c61be4336aa64343ae51227626005b2, type: 2}
  randomSpawn: 1
  pathPrefab: {fileID: 1380666107277148, guid: cee57d9fdcc48304692d718bcd642c75, type: 2}
  timeBetweenSpawns: 0.5
  spawnRandomFactor: 0
  numberOfEnemies: 30
  moveSpeed: 2
  speedRandomFactor: 0
  destroyAtEndOfPath: 0
  maxTimeSpawning: 0
