%YAML 1.1
%TAG !u! tag:unity3d.com,2011:
--- !u!114 &11400000
MonoBehaviour:
  m_ObjectHideFlags: 0
  m_CorrespondingSourceObject: {fileID: 0}
  m_PrefabInternal: {fileID: 0}
  m_GameObject: {fileID: 0}
  m_Enabled: 1
  m_EditorHideFlags: 0
  m_Script: {fileID: 11500000, guid: 08f3274396a01954ca47d4d77858532e, type: 3}
  m_Name: Wave 3
  m_EditorClassIdentifier: 
  enemyPrefab:
  - {fileID: 1960793848167712, guid: ec415b323696e2c459a4b25d4c4baddc, type: 2}
  - {fileID: 1960793848167712, guid: ec415b323696e2c459a4b25d4c4baddc, type: 2}
  - {fileID: 1960793848167712, guid: ec415b323696e2c459a4b25d4c4baddc, type: 2}
  - {fileID: 1571026109718966, guid: 00eb86a160605ca46a53a098e4882aaa, type: 2}
  - {fileID: 1571026109718966, guid: 00eb86a160605ca46a53a098e4882aaa, type: 2}
  - {fileID: 1571026109718966, guid: 74feb737d8a31984dbcac944d2b30582, type: 2}
  - {fileID: 1571026109718966, guid: 74feb737d8a31984dbcac944d2b30582, type: 2}
  - {fileID: 1571026109718966, guid: b92d4e5ac61c82047b8e41d52f680bca, type: 2}
  randomSpawn: 1
  pathPrefab: {fileID: 1094126093183256, guid: 5d5298d9b8b62924da5eea5c8b120593, type: 2}
  timeBetweenSpawns: 1
  spawnRandomFactor: 0
  numberOfEnemies: 50
  moveSpeed: 2
  speedRandomFactor: 0
  destroyAtEndOfPath: 0
  maxTimeSpawning: 0
