%YAML 1.1
%TAG !u! tag:unity3d.com,2011:
--- !u!114 &11400000
MonoBehaviour:
  m_ObjectHideFlags: 0
  m_CorrespondingSourceObject: {fileID: 0}
  m_PrefabInternal: {fileID: 0}
  m_GameObject: {fileID: 0}
  m_Enabled: 1
  m_EditorHideFlags: 0
  m_Script: {fileID: 11500000, guid: 08f3274396a01954ca47d4d77858532e, type: 3}
  m_Name: Wave 3
  m_EditorClassIdentifier: 
  enemyPrefab:
  - {fileID: 1571026109718966, guid: b92d4e5ac61c82047b8e41d52f680bca, type: 2}
  randomSpawn: 0
  pathPrefab: {fileID: 1506973595908532, guid: 9b0f5461e80d1a2439861bbdb01aaac6, type: 2}
  timeBetweenSpawns: 3
  spawnRandomFactor: 0
  numberOfEnemies: 15
  moveSpeed: 2
  speedRandomFactor: 0
  destroyAtEndOfPath: 0
  maxTimeSpawning: 0
